{
    "name": "OrderModule",
    "alias": "ordermodule",
    "description": "",
    "keywords": [],
    "active": 1,
    "order": 0,
    "providers": [
        "Modules\\OrderModule\\Providers\\OrderModuleServiceProvider"
    ],
    "aliases": {},
    "files": [],
    "requires": []
}
